.......
----------------------------------------------------------------------
Ran 7 tests in 0.001s

OK
Name               Stmts   Miss Branch BrPart  Cover   Missing
--------------------------------------------------------------
Diplomacy.py          57      1     38      1    98%   60
TestDiplomacy.py      42      0      2      0   100%
--------------------------------------------------------------
TOTAL                 99      1     40      1    99%