.............
----------------------------------------------------------------------
Ran 13 tests in 0.002s

OK
Name               Stmts   Miss Branch BrPart  Cover   Missing
--------------------------------------------------------------
Diplomacy.py          69      2     52      3    96%   49, 59, 70->64
TestDiplomacy.py      73      0      4      1    99%   100->exit
--------------------------------------------------------------
TOTAL                142      2     56      4    97%
